{
  "error" : {
    "id" : "ID-DEV-1-1517810396",
    "timestamp" : "2018-02-05T06:08:54+00:00",
    "code" : "401",
    "message" : "Unauthorized",
    "description" : "The request requires user authentication",
    "application" : "rmit-{provider}-{layer}-api",
    "system" : "{system}"
  }
}